\relax 
\select@language{english}
\@writefile{toc}{\select@language{english}}
\@writefile{lof}{\select@language{english}}
\@writefile{lot}{\select@language{english}}
\citation{dicarlo_how_2012}
\citation{wiskott_slow_2002}
\citation{berkes_slow_2005}
\citation{franzius_slowness_2007}
\citation{wiskott_slow_2002}
\citation{oja_simplified_1982}
\citation{sprekeler_slowness:_2007}
\citation{gerstner_neuronal_1996}
\citation{brette_computing_2012}
\citation{gerstner_neuronal_1996}
\citation{dan_spike_2004}
\citation{sprekeler_slowness:_2007}
\@writefile{toc}{\contentsline {section}{\numberline {1}Introduction}{3}}
\citation{lecun_gradient-based_1998}
\citation{lecun_gradient-based_1998}
\citation{sprekeler_slowness:_2007}
\citation{galtier_biological_2013}
\citation{wiskott_slow_2002}
\citation{wiskott_slow_2002}
\citation{wiskott_slow_2002}
\citation{gerstner_neuronal_1996}
\citation{gerstner_neuronal_1996}
\@writefile{lof}{\contentsline {figure}{\numberline {1}{\ignorespaces Schematic usage of SFA. \textbf  {a)} $x$ are the sensory inputs varying fast ; typically light intensity on a single pixel. SFA learns the linear transformation $W$ that maximises the slowness of the output $s$. Yet $s(t)$ depend only of $x(t)$ and not on its past ; response to transient can still be reactive. \textbf  {b)} Schematically in the context of reproducing complex cognitive task such as recognising if an animal appear in a movie scene, such conceptually interesting information vary much slower than primary sensory signals. A transformation of the inputs $x$ toward slowly varying outputs $s$ may raise interesting information in an unsupervised manner. (Figure adapted Laurenz Wiskott \cite  {wiskott_slow_2002})}}{4}}
\newlabel{fig:sfa_presentation}{{1}{4}}
\@writefile{lof}{\contentsline {figure}{\numberline {2}{\ignorespaces Spike Time Dependent Plasticity. STDP is a learning that assign at each incoming spike, a weight change depending on the delay of the spike as compared all other spike of the other neuron connected at the same synapse. What defines the fine structure of the plasticity is the window that assign at each delay the weight variation. In the example above, when the post synaptic spike above, the delay with the previous pre synaptic spike 40 ms. The STDP window represented tells that it will lead to a strengthening of the synapse of of a few percents. The author of this picture is Wulfram Gerstner \cite  {gerstner_neuronal_1996}.}}{5}}
\newlabel{fig:stdp}{{2}{5}}
\citation{galtier_multiscale_2012}
\citation{wiskott_slow_2002}
\citation{wiskott_slow_2002}
\citation{turner_maximum-likelihood_2007}
\citation{haykin_kalman_2001}
\citation{wiskott_slow_2002}
\@writefile{toc}{\contentsline {section}{\numberline {2}Establishment of batch, online and spiking implementation of SFA}{6}}
\@writefile{toc}{\contentsline {subsection}{\numberline {2.1}Notations}{6}}
\newlabel{sec:notations}{{2.1}{6}}
\@writefile{toc}{\contentsline {subsection}{\numberline {2.2}SFA as an unsupervised learning problem}{6}}
\newlabel{sec:sfa}{{2.2}{6}}
\@writefile{toc}{\contentsline {subsubsection}{\numberline {2.2.1}SFA as an unsupervised learning problem: existing solving algorithms and probabilistic interpretations}{6}}
\newlabel{sec:sfa_definition}{{2.2.1}{6}}
\newlabel{eq:sfa}{{1}{6}}
\@writefile{toc}{\contentsline {subsubsection}{\numberline {2.2.2}First test are run on a toy example}{6}}
\citation{wiskott_slow_2002}
\citation{wiskott_slow_2002}
\@writefile{lof}{\contentsline {figure}{\numberline {3}{\ignorespaces  Presentation of the toy example and short summary of the goal of SFA. \textbf  {a)} Application of the algorithm from Wiskott et al. \cite  {wiskott_slow_2002} to the toy example presented in the same paper. The input are in blue and the output of the algorithm displayed in red. Solution given by this algorithm will always presented in red in this paper, it will provide ground truth solutions. This weights are initialised randomly. The algorithm recover the slow sinus from the input. \textbf  {b)} Summary of how are defined the five inputs of the toy example. The inputs are defined as: $x_1(t) = \qopname  \relax o{sin}( 2 \pi f_0 t) + \alpha \qopname  \relax o{cos}( 2 \pi 11 f_0 t)^2,x_2(t) = \qopname  \relax o{cos}( 2 \pi 11 f_0 t), x_3 = x_1^2,x_4 = x_1 x_2$ and $x_5=x_2^2$. In the plotted case, $\alpha =1$. \textbf  {c)} We recall that SFA performs a linear transformation. \textbf  {d)} We recall The goal of SFA. }}{7}}
\newlabel{fig:sfa}{{3}{7}}
\@writefile{toc}{\contentsline {subsubsection}{\numberline {2.2.3}Simplification of the problem and batch implementation}{7}}
\newlabel{eq:sfa_1D}{{2}{7}}
\citation{goodman_brian:_2008}
\citation{galtier_biological_2013}
\citation{dan_spike_2004}
\@writefile{lof}{\contentsline {figure}{\numberline {4}{\ignorespaces SFA is implemented using gradient ascent iterations in two different ways: the batch implementation closer to the theory and the online form more realistic ; the two form converge to the same solution if the online evolution of the weights is slow enough. \textbf  {a)} In the batch implementation the same stimulus is presented until convergence, the weights are updated between iterations depending on averaged statistics of over the whole sequence. \textbf  {b)} In the online form the input may evolve over time and not be periodic, the weights are updated at every time step depending on the instantaneous responses of the input and the output neuron.}}{8}}
\newlabel{fig:batch_vs_online}{{4}{8}}
\@writefile{toc}{\contentsline {subsection}{\numberline {2.3}Online adaptation of the batch algorithm}{8}}
\newlabel{sec:online}{{2.3}{8}}
\citation{kempter_hebbian_1999}
\citation{sprekeler_slowness:_2007}
\citation{kempter_hebbian_1999}
\citation{sprekeler_slowness:_2007}
\citation{izhikevich_relating_2003}
\citation{kempter_hebbian_1999}
\citation{kempter_hebbian_1999}
\citation{sprekeler_slowness:_2007}
\citation{kempter_hebbian_1999}
\citation{kempter_hebbian_1999}
\citation{gerstner_neuronal_1996}
\@writefile{toc}{\contentsline {subsection}{\numberline {2.4}Relating STDP to learning rules expressed in terms of neurons spiking rates}{9}}
\@writefile{toc}{\contentsline {subsubsection}{\numberline {2.4.1}Time scales assumptions}{9}}
\newlabel{eq:time_scales}{{3}{9}}
\@writefile{toc}{\contentsline {subsubsection}{\numberline {2.4.2}The spiking neuron model}{9}}
\newlabel{eq:linearity_in}{{4}{9}}
\newlabel{eq:linearity_out}{{5}{9}}
\citation{galtier_multiscale_2012}
\citation{galtier_multiscale_2012}
\@writefile{toc}{\contentsline {subsubsection}{\numberline {2.4.3}STDP formalisation in terms of empirical activity}{10}}
\newlabel{sec:stdp}{{2.4.3}{10}}
\newlabel{eq:stdp}{{6}{10}}
\@writefile{toc}{\contentsline {subsection}{\numberline {2.5}Giving a literal expression to the STDP window that implement SFA}{10}}
\citation{galtier_multiscale_2012}
\@writefile{toc}{\contentsline {subsubsection}{\numberline {2.5.1}A spike counting filter adapted to exhibit the STDP kernels associated to a learning rule expressed with derivatives}{11}}
\newlabel{sec:sfa_kernel}{{2.5.1}{11}}
\newlabel{eq:stdp_kernel}{{7}{11}}
\@writefile{toc}{\contentsline {subsubsection}{\numberline {2.5.2}Literal expression and representation of the STDP window}{11}}
\@writefile{toc}{\contentsline {subsection}{\numberline {2.6}Spiking simulations}{11}}
\citation{oja_simplified_1982}
\@writefile{toc}{\contentsline {subsection}{\numberline {2.7}Comparison with other STDP windows and dependency to parameters}{12}}
\@writefile{toc}{\contentsline {subsubsection}{\numberline {2.7.1}Comparison with other STDP windows}{12}}
\@writefile{toc}{\contentsline {subsection}{\numberline {2.8}Application of SFA to audio processing}{12}}
\citation{kempter_hebbian_1999}
\citation{wiskott_slow_2002}
\citation{wiskott_slow_2002}
\citation{galtier_biological_2013}
\citation{dan_spike_2004}
\@writefile{toc}{\contentsline {section}{\numberline {3}Results}{13}}
\@writefile{toc}{\contentsline {subsection}{\numberline {3.1}A hebbian learning rule implements a gradient ascent to solve SFA}{13}}
\@writefile{toc}{\contentsline {subsection}{\numberline {3.2}STDP can implement SFA on the empirical activities}{13}}
\@writefile{toc}{\contentsline {subsubsection}{\numberline {3.2.1}Summary of the leaning rules that implement SFA}{13}}
\newlabel{sec:stdp_gradient}{{3.2.1}{13}}
\newlabel{eq:stdp_gradient}{{9}{13}}
\@writefile{toc}{\contentsline {subsection}{\numberline {3.3}A projected gradient implementation of SFA is robust}{13}}
\@writefile{lof}{\contentsline {figure}{\numberline {5}{\ignorespaces  \textbf  {a)} The implementation of SFA given by Wiskott et al.\cite  {wiskott_slow_2002} gives a ground truth solution. In the toy example it is the low frequency sinusoid. \textbf  {b)} The batch implementation also converge toward the slowest solution. (The phases of the oscillations are opposed, yet the two solution are equally optimal). \textbf  {c)} The online form converge to the same solution. \textbf  {d)} The evolution of the five corresponding weights over time with the online implementation. Convergence is reached in a few second, this could easily be improved by adjusting the various parameters.}}{14}}
\newlabel{fig:convergence}{{5}{14}}
\@writefile{toc}{\contentsline {subsection}{\numberline {3.4}SFA learns pitch and tempo tuned filter in audio recordings}{14}}
\@writefile{toc}{\contentsline {subsubsection}{\numberline {3.4.1}SFA can learn pitch on a guitar recording}{14}}
\@writefile{lof}{\contentsline {figure}{\numberline {6}{\ignorespaces To attest of the specificity of the STDP window we found as implementing SFA, three different windows traditionally used in the literature are compared on the toy example with the batch and the online forms. On the first row, the SFA window recovers the slowest sinusoid. The second row illustrate that the causal asymmetric window widely used in the literature do not implement SFA. The last two rows show that a Hebbian and a anti-hebbian window do not implement SFA either.}}{15}}
\newlabel{fig:window_comparison}{{6}{15}}
\@writefile{lof}{\contentsline {figure}{\numberline {7}{\ignorespaces The dependency to input construction and to the STDP window parameters are explored. \textbf  {a)} Influence of $\alpha $: it balances the amount of high frequency information in the input. See caption of figure \ref  {fig:sfa} for more details. \textbf  {b)} Influence of $\tau _{STDP}$: it is the time constant defining the width of the STDP window. \textbf  {c,d,e)} After fixing one parameter, the other parameter is varying on the horizontal axis. In each cases the four STDP windows introduces in figure \ref  {fig:window_comparison} are compared on the vertical axis. For each point of the parameter space 20 batch simulations are launched with different random weight initialisation. The slowness of the solutions is measured as a correlation with the slow sinusoid averaged over trials. The SFA window recovers the slow solution at each trial. It only fails when the assumption that the width of the STDP window is larger than the fastest time scale variation of the input is not respected. The Hebbian and the anti-Hebbian window do converge toward the slow solution in a limited range of the parameter space.}}{16}}
\newlabel{fig:correlations}{{7}{16}}
\citation{wiskott_slow_2003}
\@writefile{toc}{\contentsline {subsubsection}{\numberline {3.4.2}SFA can learn the tempo on a guitar recording}{17}}
\@writefile{toc}{\contentsline {subsubsection}{\numberline {3.4.3}Heterogeneous population of neurons implementing SFA exhaustively analyse a music piece}{17}}
\@writefile{lof}{\contentsline {figure}{\numberline {8}{\ignorespaces \textbf  {a)} Schematic construction of the input. The input is a single guitar recording of country music. The recording is delayed 256 times width a delay of $\tau _{delay} = 1 ms$. Then SFA is applied and \textbf  {b,c,d,e)} show that it enables to learn a filter tuned to the pitch of the bass note played by the guitarist with both the ground truth and the batch implementations. \textbf  {b)} The input recording $x_0$ is displayed in blue and the two outputs of SFA (filtered versions of input) are represented in black and red. A zoom show that the outputs behave as modulated sinusoids. \textbf  {c)} The power spectrum of the three signals show that the fundamental pitch of the guitar note is selected from the input. \textbf  {d)} The two learnt filters are highly similar and it shows that the Batch implementation converge toward the same solution as the ground truth even on complex examples. \textbf  {e)} The frequency response of the two learnt filters are highly selective in frequency. They are tuned to G2 the bass note of the chord played by the musician in most of the musical piece.}}{18}}
\newlabel{fig:audio_guit}{{8}{18}}
\@writefile{lof}{\contentsline {figure}{\numberline {9}{\ignorespaces \textbf  {a)} The only difference with figure \ref  {fig:audio_guit} is that the delays are ten times bigger. The learnt filter is instead tuned to the tempo of the music. \textbf  {b)} Because the filter is tuned to the tempo $s$, the output has low amplitude when the rhythm change and the guitarist do not play anymore in high synchrony with the tempo.\textbf  {b)} The power spectrum show the increase in energy at the tempo frequency. \textbf  {c,d)} The learnt filter is more selective with the batch implementation, however both are tuned to the tempo.}}{19}}
\newlabel{fig:audio_tempo}{{9}{19}}
\@writefile{toc}{\contentsline {subsubsection}{\numberline {3.4.4}Extension to speech recording}{19}}
\@writefile{lof}{\contentsline {figure}{\numberline {10}{\ignorespaces The simulations are run on the guitar example with 512 delays and $\tau _{delay} = 1.5 ms$. Over the trials the dependency to the parameter $\tau _{STDP}$ is explored with the batch implementation. \text  {a,b,d)} Three filters learnt with $\tau _{STDP}$ at different orders of magnitude. When $\tau _{STDP}$ is larger, a lower periodicity is captured. \text  {d)} The parameter $\tau _{STDP}$ vary on the vertical axis, at each row the frequency response of a filter is represented with warmer colour corresponding to high frequency response. Figure \ref  {fig:audio_guit},d) is a theoretical bottom limit row where $\tau _{STDP}$ goes to zero. The dashed lines annotate the different identified peaks of the frequency response. In green, E2 and G2 are the two bass notes mostly played by the musician in the recording. In magenta, E0 is a note to low to be played on a guitar, yet the pitch can be perceived when a chord with many peaks displayed every $20.5 Hz$ is played. In black, the tempo is identified by our expert at 181 BPM and captured by plastic neurons with large window time constant. \text  {a,b,c,b)} It shows that with a population of neurons implementing SFA with plasticity rules heterogeneous in $\tau _{STDP}$, outputs can be tuned to extract the main played notes (E2,G2), the tempo and the perceived pitch induced by a complex chord (E0) as well as the rhythmic periodicity of the music.}}{20}}
\newlabel{fig:audio_tau}{{10}{20}}
\@writefile{lof}{\contentsline {figure}{\numberline {11}{\ignorespaces \textbf  {a)} As compared to figure \ref  {fig:audio_guit}, the audio recording is a woman speech recording. \textbf  {b,c,d)} The learnt filter are highly selective in pitch frequency. \textbf  {d,e)} The two filters are tuned to different frequencies. The batch solution captures a lower frequency even if the solution is numerically faster. \textbf  {c)} The power spectrum of the outputs show that the two solutions focus on different frequency peaks and that those peaks are both local maximum of the power spectrum. \textbf  {b)} The input and the outputs in temporal domains, because the tuning pitches are dissimilar the batch and the ground truth outputs respond with high amplitude on different phonemes of the spoken sentence. When the two response occur one after the other it may be a piece of evidence to locate ascending or descending chirps. \textbf  {b-e)}The behaviour of both algorithms seem dissimilar. Yet in practice this does not mean that the two SFA implementation would not lead to the same analysis to the data, many decorrelated output neurons have to be considered, in that case both implementations would learn the same set of filters tuned to the main pitches in the voice.}}{21}}
\newlabel{fig:audio_vox}{{11}{21}}
\citation{sprekeler_slowness:_2007}
\citation{kempter_hebbian_1999}
\citation{sprekeler_slowness:_2007}
\citation{kempter_hebbian_1999}
\@writefile{lof}{\contentsline {figure}{\numberline {12}{\ignorespaces \textbf  {a)} The results are generalised to spiking neurons. * Using a rate code, the assumption used in \cite  {sprekeler_slowness:_2007,kempter_hebbian_1999} of STDP is to consider $r^{out}$ linearly related to $\setbox \z@ \hbox {\frozen@everymath \@emptytoks \mathsurround \z@ $\textstyle s$}\mathaccent "0362{s}$. In that case the STDP rule ($\mathaccentV {dot}05F{w_i}(t^{out}) \propto \mathaccentV {tilde}07E{\Lambda }_{SFA}(t_i^{in} - t^{out})$) implements SFA as being equivalent to the online form ($\mathaccentV {dot}05F{w_i} \propto \setbox \z@ \hbox {\frozen@everymath \@emptytoks \mathsurround \z@ $\textstyle x_i$}\mathaccent "0362{x_i} \ast \Lambda _{SFA} \setbox \z@ \hbox {\frozen@everymath \@emptytoks \mathsurround \z@ $\textstyle s$}\mathaccent "0362{s}$). \textbf  {b,c,d)} prove that STDP implements SFA in the toy example with five spiking non-homogeneous Poisson neurons of rates $x_1, \dots  x_5$ re-scaled to vary from 20 to 180 Hz. \textbf  {b)} $\setbox \z@ \hbox {\frozen@everymath \@emptytoks \mathsurround \z@ $\textstyle s$}\mathaccent "0362{s}$ is represented during learning. \textbf  {c)} display in magenta the 2 second pattern averaged after convergence (arbitrarily defined from 200 to 400 seconds). \textbf  {d)} show the learning weights.}}{22}}
\newlabel{fig:spiking}{{12}{22}}
\@writefile{toc}{\contentsline {subsection}{\numberline {3.5}Realistic adaptation of the algorithm batch, online and then spiking}{22}}
\citation{sprekeler_slowness:_2007}
\citation{oja_simplified_1982}
\citation{kempter_hebbian_1999}
\citation{sprekeler_slowness:_2007}
\@writefile{toc}{\contentsline {section}{\numberline {4}Discussion}{23}}
\@writefile{toc}{\contentsline {subsection}{\numberline {4.1}Comparison with previous work}{23}}
\@writefile{toc}{\contentsline {subsubsection}{\numberline {4.1.1}Implementing SFA with spiking neurons: what's new ?}{23}}
\@writefile{toc}{\contentsline {subsubsection}{\numberline {4.1.2}Generalisation of the resolution scheme and optimisation interpretation of any STDP window}{23}}
\@writefile{toc}{\contentsline {subsection}{\numberline {4.2}Main assumptions consider in our study}{23}}
\citation{kempter_hebbian_1999}
\citation{kempter_hebbian_1999}
\citation{wiskott_slow_2003}
\@writefile{toc}{\contentsline {subsubsection}{\numberline {4.2.1}Linearity of the spiking neuron}{24}}
\@writefile{toc}{\contentsline {subsubsection}{\numberline {4.2.2}Rate code or spike timing code}{24}}
\@writefile{toc}{\contentsline {subsubsection}{\numberline {4.2.3}Influence of spike time stochastic dependency}{24}}
\newlabel{sec:dependency}{{4.2.3}{24}}
\newlabel{eq:unbais}{{4.2.3}{24}}
\@writefile{toc}{\contentsline {section}{\numberline {5}Conclusion}{24}}
\bibstyle{plain}
\bibdata{library}
\bibcite{berkes_slow_2005}{1}
\bibcite{brette_computing_2012}{2}
\bibcite{dan_spike_2004}{3}
\bibcite{dicarlo_how_2012}{4}
\bibcite{franzius_slowness_2007}{5}
\bibcite{galtier_multiscale_2012}{6}
\bibcite{galtier_biological_2013}{7}
\bibcite{gerstner_neuronal_1996}{8}
\bibcite{goodman_brian:_2008}{9}
\bibcite{haykin_kalman_2001}{10}
\bibcite{izhikevich_relating_2003}{11}
\bibcite{kempter_hebbian_1999}{12}
\bibcite{lecun_gradient-based_1998}{13}
\bibcite{oja_simplified_1982}{14}
\bibcite{sprekeler_slowness:_2007}{15}
\bibcite{turner_maximum-likelihood_2007}{16}
\bibcite{wiskott_slow_2003}{17}
\bibcite{wiskott_slow_2002}{18}
