This is BibTeX, Version 0.99d (TeX Live 2013/Debian)
Capacity: max_strings=35307, hash_size=35307, hash_prime=30011
The top-level auxiliary file: main.aux
The style file: plain.bst
Database file #1: library.bib
You've used 18 entries,
            2118 wiz_defined-function locations,
            608 strings with 6607 characters,
and the built_in function-call counts, 5836 in all, are:
= -- 578
> -- 261
< -- 0
+ -- 105
- -- 84
* -- 466
:= -- 998
add.period$ -- 54
call.type$ -- 18
change.case$ -- 95
chr.to.int$ -- 0
cite$ -- 18
duplicate$ -- 198
empty$ -- 458
format.name$ -- 84
if$ -- 1176
int.to.chr$ -- 0
int.to.str$ -- 18
missing$ -- 19
newline$ -- 93
num.names$ -- 36
pop$ -- 66
preamble$ -- 1
purify$ -- 78
quote$ -- 0
skip$ -- 133
stack$ -- 0
substring$ -- 430
swap$ -- 18
text.length$ -- 0
text.prefix$ -- 0
top$ -- 0
type$ -- 70
warning$ -- 0
while$ -- 62
width$ -- 20
write$ -- 199
